%YAML 1.1
%TAG !u! tag:unity3d.com,2011:
--- !u!114 &11400000
MonoBehaviour:
  m_ObjectHideFlags: 0
  m_CorrespondingSourceObject: {fileID: 0}
  m_PrefabInstance: {fileID: 0}
  m_PrefabAsset: {fileID: 0}
  m_GameObject: {fileID: 0}
  m_Enabled: 1
  m_EditorHideFlags: 0
  m_Script: {fileID: 11500000, guid: 3a7742193c16426aa6f7c0c52cf4047b, type: 3}
  m_Name: CanyonBall
  m_EditorClassIdentifier: 
  type: 1
  sprite: {fileID: 21300000, guid: e9b028691b63f48b48261d49d6ce417e, type: 3}
  name: 
  audio: {fileID: 0}
